{
    "model" : {
        "min_input_size":       288,
        "max_input_size":       448,
        "anchors":              [95,56, 101,46, 112,62, 119,260, 124,76, 140,95, 155,116, 168,150, 192,286],
        "labels":               ["car_dirt", "car_emty", "loader_dirt", "loader_emty"]
    },
    "train": {
        "train_image_folder":   "input/yolo_images/",
        "train_annot_folder":   "input/yolo_ann/",
        "cache_name":           "train.pkl",

        "train_times":          8,
        "batch_size":           1,
        "learning_rate":        1e-5,
        "nb_epochs":            300,
        "warmup_epochs":        3,
        "ignore_thresh":        0.5,
        "gpus":                 "0,1",

        "grid_scales":          [1,1,1],
        "obj_scale":            5,
        "noobj_scale":          1,
        "xywh_scale":           1,
        "class_scale":          1,

        "tensorboard_dir":      "logs",
        "saved_weights_name":   "drobilka.h5",
        "debug":                false
    },

    "valid": {
        "valid_image_folder":   "",
        "valid_annot_folder":   "",
        "cache_name":           "",

        "valid_times":          1
    }
}
